module notification-service

go 1.13

// This can be removed once etcd becomes go gettable, version 3.4 and 3.5 is not,
// see https://github.com/etcd-io/etcd/issues/11154 and https://github.com/etcd-io/etcd/issues/11931.
replace google.golang.org/grpc => google.golang.org/grpc v1.26.0

replace ems/shared => bitbucket.org/test-ws-fpt/shared v1.1.5

require (
	ems/shared v1.1.5
	github.com/micro/go-micro/v2 v2.9.1
	github.com/streadway/amqp v1.0.0
	golang.org/x/net v0.0.0-20200520182314-0ba52f642ac2
	golang.org/x/oauth2 v0.0.0-20190604053449-0f29369cfe45
	google.golang.org/api v0.14.0
)
